%YAML 1.1
%TAG !u! tag:unity3d.com,2011:
--- !u!1045 &1
EditorBuildSettings:
  m_ObjectHideFlags: 0
  serializedVersion: 2
  m_Scenes:
  - enabled: 1
    path: Assets/Resources/Scenes/menu.unity
    guid: 4236996b8467d274bbcb56be600c7256
  - enabled: 1
    path: Assets/Resources/Scenes/game_scene.unity
    guid: 2cda990e2423bbf4892e6590ba056729
  m_configObjects: {}
