{
    "m_SelectedDeviceId": "WQD4C19306000315",
    "m_SelectedPackage": {
        "deviceId": "WQD4C19306000315",
        "name": "com.DefaultCompany.com.unity.template.mobile2D",
        "processId": 21587,
        "exited": false
    },
    "m_SelectedPriority": 0,
    "m_KnownPackagesForSerialization": [
        {
            "deviceId": "WQD4C19306000315",
            "name": "com.android.settings",
            "processId": 1841,
            "exited": true
        },
        {
            "deviceId": "WQD4C19306000315",
            "name": "com.DefaultCompany.com.unity.template.mobile2D",
            "processId": 12188,
            "exited": true
        },
        {
            "deviceId": "WQD4C19306000315",
            "name": "com.DefaultCompany.com.unity.template.mobile2D",
            "processId": 20505,
            "exited": false
        },
        {
            "deviceId": "WQD4C19306000315",
            "name": "com.DefaultCompany.com.unity.template.mobile2D",
            "processId": 19774,
            "exited": false
        },
        {
            "deviceId": "WQD4C19306000315",
            "name": "com.DefaultCompany.com.unity.template.mobile2D",
            "processId": 21587,
            "exited": false
        }
    ],
    "m_Tags": {
        "m_Entries": [
            {
                "m_Name": "Filter by all listed tags",
                "m_Selected": false
            },
            {
                "m_Name": "No Filter",
                "m_Selected": true
            },
            {
                "m_Name": "",
                "m_Selected": false
            },
            {
                "m_Name": "Tag Control...",
                "m_Selected": false
            },
            {
                "m_Name": "",
                "m_Selected": false
            },
            {
                "m_Name": "Unity",
                "m_Selected": false
            },
            {
                "m_Name": "CRASH",
                "m_Selected": false
            }
        ]
    },
    "m_MemoryViewerState": {
        "MemoryWindowHeight": 300.0,
        "MemoryWindowWidth": 170.0,
        "MemoryTypeEnabled": [
            true,
            true,
            true,
            true,
            true,
            true,
            true,
            true,
            true,
            true
        ],
        "MemoryGroup": 2,
        "Behavior": 0
    },
    "m_Filter": "",
    "m_FilterIsRegularExpression": false,
    "m_SymbolPaths": []
}